<svg width="88" height="88" viewBox="0 0 88 88" fill="none" xmlns="http://www.w3.org/2000/svg">
<g filter="url(#filter0_d)">
<rect x="4.5" y="4.5" width="79" height="79" rx="9.5" stroke="white"/>
<path d="M62.82 43.16L44.82 25.16C44.1 24.44 43.1 24 42 24H28C25.8 24 24 25.8 24 28V42C24 43.1 24.44 44.1 25.18 44.84L43.18 62.84C43.9 63.56 44.9 64 46 64C47.1 64 48.1 63.56 48.82 62.82L62.82 48.82C63.56 48.1 64 47.1 64 46C64 44.9 63.54 43.88 62.82 43.16ZM46 60.02L28 42V28H42V27.98L60 45.98L46 60.02Z" fill="white"/>
<path d="M33.1666 35.6666C34.5473 35.6666 35.6666 34.5473 35.6666 33.1666C35.6666 31.7859 34.5473 30.6666 33.1666 30.6666C31.7859 30.6666 30.6666 31.7859 30.6666 33.1666C30.6666 34.5473 31.7859 35.6666 33.1666 35.6666Z" fill="white"/>
<path d="M37.3334 45.0595C37.3334 46.2809 37.8048 47.3523 38.563 48.1666L45.7355 55.6666L52.9079 48.1666C53.6343 47.33 54.025 46.2331 53.9989 45.1034C53.9728 43.9737 53.532 42.8978 52.7679 42.0988C52.0037 41.2997 50.9748 40.8388 49.8945 40.8115C48.8141 40.7843 47.7651 41.1928 46.965 41.9523L45.7355 43.2381L44.5059 41.9738C43.7477 41.1595 42.682 40.6666 41.5344 40.6666C39.2188 40.6666 37.3334 42.6381 37.3334 45.0595Z" fill="white"/>
</g>
<defs>
<filter id="filter0_d" x="0" y="0" width="88" height="88" filterUnits="userSpaceOnUse" color-interpolation-filters="sRGB">
<feFlood flood-opacity="0" result="BackgroundImageFix"/>
<feColorMatrix in="SourceAlpha" type="matrix" values="0 0 0 0 0 0 0 0 0 0 0 0 0 0 0 0 0 0 127 0"/>
<feOffset/>
<feGaussianBlur stdDeviation="2"/>
<feColorMatrix type="matrix" values="0 0 0 0 1 0 0 0 0 1 0 0 0 0 1 0 0 0 0.5 0"/>
<feBlend mode="normal" in2="BackgroundImageFix" result="effect1_dropShadow"/>
<feBlend mode="normal" in="SourceGraphic" in2="effect1_dropShadow" result="shape"/>
</filter>
</defs>
</svg>
