<svg width="70" height="70" viewBox="0 0 88 88" fill="none" xmlns="http://www.w3.org/2000/svg">
<g filter="url(#filter0_d)">
<rect x="4.5" y="4.5" width="79" height="79" rx="9.5" stroke="white"/>
<path d="M44 47.3334C44.884 47.3334 45.7319 46.9822 46.357 46.357C46.9821 45.7319 47.3333 44.8841 47.3333 44C47.3333 43.116 46.9821 42.2681 46.357 41.643C45.7319 41.0179 44.884 40.6667 44 40.6667C43.1159 40.6667 42.2681 41.0179 41.6429 41.643C41.0178 42.2681 40.6666 43.116 40.6666 44C40.6666 44.8841 41.0178 45.7319 41.6429 46.357C42.2681 46.9822 43.1159 47.3334 44 47.3334Z" fill="white"/>
<path d="M32.3334 44C32.3334 40.9058 33.5625 37.9383 35.7505 35.7504C37.9384 33.5625 40.9058 32.3333 44 32.3333C47.0942 32.3333 50.0617 33.5625 52.2496 35.7504C54.4375 37.9383 55.6667 40.9058 55.6667 44C55.6667 47.0942 54.4375 50.0616 52.2496 52.2496C50.0617 54.4375 47.0942 55.6666 44 55.6666C40.9058 55.6666 37.9384 54.4375 35.7505 52.2496C33.5625 50.0616 32.3334 47.0942 32.3334 44ZM44 37.3333C42.2319 37.3333 40.5362 38.0357 39.286 39.2859C38.0358 40.5362 37.3334 42.2319 37.3334 44C37.3334 45.7681 38.0358 47.4638 39.286 48.714C40.5362 49.9643 42.2319 50.6666 44 50.6666C45.7682 50.6666 47.4638 49.9643 48.7141 48.714C49.9643 47.4638 50.6667 45.7681 50.6667 44C50.6667 42.2319 49.9643 40.5362 48.7141 39.2859C47.4638 38.0357 45.7682 37.3333 44 37.3333Z" fill="white"/>
<path d="M24 44C24 41.3736 24.5173 38.7728 25.5224 36.3463C26.5275 33.9198 28.0007 31.715 29.8579 29.8579C31.715 28.0007 33.9198 26.5275 36.3463 25.5224C38.7728 24.5173 41.3736 24 44 24C46.6264 24 49.2272 24.5173 51.6537 25.5224C54.0802 26.5275 56.285 28.0007 58.1421 29.8579C59.9993 31.715 61.4725 33.9198 62.4776 36.3463C63.4827 38.7728 64 41.3736 64 44C64 49.3043 61.8929 54.3914 58.1421 58.1421C54.3914 61.8929 49.3043 64 44 64C38.6957 64 33.6086 61.8929 29.8579 58.1421C26.1071 54.3914 24 49.3043 24 44ZM44 29C40.0218 29 36.2064 30.5804 33.3934 33.3934C30.5804 36.2064 29 40.0218 29 44C29 47.9782 30.5804 51.7936 33.3934 54.6066C36.2064 57.4196 40.0218 59 44 59C47.9782 59 51.7936 57.4196 54.6066 54.6066C57.4196 51.7936 59 47.9782 59 44C59 40.0218 57.4196 36.2064 54.6066 33.3934C51.7936 30.5804 47.9782 29 44 29Z" fill="white"/>
</g>
<defs>
<filter id="filter0_d" x="0" y="0" width="88" height="88" filterUnits="userSpaceOnUse" color-interpolation-filters="sRGB">
<feFlood flood-opacity="0" result="BackgroundImageFix"/>
<feColorMatrix in="SourceAlpha" type="matrix" values="0 0 0 0 0 0 0 0 0 0 0 0 0 0 0 0 0 0 127 0"/>
<feOffset/>
<feGaussianBlur stdDeviation="2"/>
<feColorMatrix type="matrix" values="0 0 0 0 1 0 0 0 0 1 0 0 0 0 1 0 0 0 0.5 0"/>
<feBlend mode="normal" in2="BackgroundImageFix" result="effect1_dropShadow"/>
<feBlend mode="normal" in="SourceGraphic" in2="effect1_dropShadow" result="shape"/>
</filter>
</defs>
</svg>
