<svg width="70" height="70" viewBox="0 0 88 88" fill="none" xmlns="http://www.w3.org/2000/svg">
<g filter="url(#filter0_d)">
<rect x="4.5" y="4.5" width="79" height="79" rx="9.5" stroke="white"/>
<path d="M44 24C41.3736 24 38.7728 24.5173 36.3463 25.5224C33.9198 26.5275 31.715 28.0007 29.8579 29.8579C26.1071 33.6086 24 38.6957 24 44C24 49.3043 26.1071 54.3914 29.8579 58.1421C31.715 59.9993 33.9198 61.4725 36.3463 62.4776C38.7728 63.4827 41.3736 64 44 64C49.3043 64 54.3914 61.8929 58.1421 58.1421C61.8929 54.3914 64 49.3043 64 44C64 41.3736 63.4827 38.7728 62.4776 36.3463C61.4725 33.9198 59.9993 31.715 58.1421 29.8579C56.285 28.0007 54.0802 26.5275 51.6537 25.5224C49.2272 24.5173 46.6264 24 44 24ZM44 36.78C47.227 38.8766 50.9917 39.9949 54.84 40C56.4 40 57.9 39.82 59.34 39.48C59.76 40.9 60 42.42 60 44C60 52.82 52.82 60 44 60C38 60 32.78 56.68 30 51.78L33.5 48V46C33.5 45.337 33.7634 44.7011 34.2322 44.2322C34.7011 43.7634 35.337 43.5 36 43.5C36.663 43.5 37.2989 43.7634 37.7678 44.2322C38.2366 44.7011 38.5 45.337 38.5 46V48H44V36.78ZM52 43.5C51.337 43.5 50.7011 43.7634 50.2322 44.2322C49.7634 44.7011 49.5 45.337 49.5 46C49.5 46.663 49.7634 47.2989 50.2322 47.7678C50.7011 48.2366 51.337 48.5 52 48.5C52.663 48.5 53.2989 48.2366 53.7678 47.7678C54.2366 47.2989 54.5 46.663 54.5 46C54.5 45.337 54.2366 44.7011 53.7678 44.2322C53.2989 43.7634 52.663 43.5 52 43.5Z" fill="white"/>
</g>
<defs>
<filter id="filter0_d" x="0" y="0" width="88" height="88" filterUnits="userSpaceOnUse" color-interpolation-filters="sRGB">
<feFlood flood-opacity="0" result="BackgroundImageFix"/>
<feColorMatrix in="SourceAlpha" type="matrix" values="0 0 0 0 0 0 0 0 0 0 0 0 0 0 0 0 0 0 127 0"/>
<feOffset/>
<feGaussianBlur stdDeviation="2"/>
<feColorMatrix type="matrix" values="0 0 0 0 1 0 0 0 0 1 0 0 0 0 1 0 0 0 0.5 0"/>
<feBlend mode="normal" in2="BackgroundImageFix" result="effect1_dropShadow"/>
<feBlend mode="normal" in="SourceGraphic" in2="effect1_dropShadow" result="shape"/>
</filter>
</defs>
</svg>
