<svg width="1440" height="1024" viewBox="0 0 1440 1024" fill="none" xmlns="http://www.w3.org/2000/svg">
<rect width="1440" height="1024" fill="url(#paint0_linear)"/>
<rect width="1440" height="1024" fill="url(#paint1_linear)"/>
<mask id="mask0" mask-type="alpha" maskUnits="userSpaceOnUse" x="0" y="0" width="1440" height="1024">
<rect width="1440" height="1024" fill="url(#paint2_linear)"/>
<rect width="1440" height="1024" fill="url(#paint3_linear)"/>
</mask>
<g mask="url(#mask0)">
<g filter="url(#filter0_f)">
<circle r="1024" fill="url(#paint4_linear)" fill-opacity="0.35"/>
</g>
</g>
<defs>
<filter id="filter0_f" x="-1040" y="-1040" width="2080" height="2080" filterUnits="userSpaceOnUse" color-interpolation-filters="sRGB">
<feFlood flood-opacity="0" result="BackgroundImageFix"/>
<feBlend mode="normal" in="SourceGraphic" in2="BackgroundImageFix" result="shape"/>
<feGaussianBlur stdDeviation="8" result="effect1_foregroundBlur"/>
</filter>
<linearGradient id="paint0_linear" x1="720" y1="0" x2="720" y2="1024" gradientUnits="userSpaceOnUse">
<stop stop-color="#690C14"/>
<stop offset="1" stop-color="#9C1616"/>
</linearGradient>
<linearGradient id="paint1_linear" x1="1430.5" y1="1024" x2="0" y2="1024" gradientUnits="userSpaceOnUse">
<stop stop-color="#02218F" stop-opacity="0.35"/>
<stop offset="0.598958" stop-color="#CF2B2B" stop-opacity="0.18"/>
</linearGradient>
<linearGradient id="paint2_linear" x1="720" y1="0" x2="720" y2="1024" gradientUnits="userSpaceOnUse">
<stop stop-color="#B3424C"/>
<stop offset="1" stop-color="#B5335A"/>
</linearGradient>
<linearGradient id="paint3_linear" x1="1430.5" y1="1024" x2="0" y2="1024" gradientUnits="userSpaceOnUse">
<stop stop-color="#6C7FE1" stop-opacity="0.35"/>
<stop offset="0.760417" stop-color="#CF2B2B" stop-opacity="0.18"/>
</linearGradient>
<linearGradient id="paint4_linear" x1="0" y1="-1024" x2="0" y2="1024" gradientUnits="userSpaceOnUse">
<stop stop-color="#7C6CE1"/>
<stop offset="1" stop-color="#6C7FE1" stop-opacity="0"/>
</linearGradient>
</defs>
</svg>
